<svg width="56" height="56" viewBox="0 0 56 56" fill="none" xmlns="http://www.w3.org/2000/svg">
<rect x="13.4399" y="15.6801" width="14.9333" height="16.4267" fill="#1F9D97"/>
<path d="M28.3733 19.4133C27.785 19.4133 27.2024 19.5292 26.6589 19.7543C26.1154 19.9795 25.6215 20.3095 25.2055 20.7255C24.7895 21.1415 24.4595 21.6354 24.2343 22.1789C24.0092 22.7224 23.8933 23.305 23.8933 23.8933C23.8933 24.4817 24.0092 25.0642 24.2343 25.6078C24.4595 26.1513 24.7895 26.6452 25.2055 27.0612C25.6215 27.4772 26.1154 27.8072 26.6589 28.0323C27.2024 28.2575 27.785 28.3733 28.3733 28.3733L28.3733 23.8933V19.4133Z" fill="#1F9D97" stroke="white" stroke-width="2"/>
<path d="M16.4268 19.4133H20.1601" stroke="#2AD2C9" stroke-width="2"/>
<path d="M16.4268 28.3734H20.1601" stroke="#2AD2C9" stroke-width="2"/>
<rect x="28.373" y="24.6401" width="14.9333" height="16.4267" fill="#2AD2C9"/>
<path d="M28.3731 37.3334C28.9614 37.3334 29.5439 37.2175 30.0875 36.9924C30.631 36.7673 31.1249 36.4373 31.5409 36.0213C31.9569 35.6052 32.2869 35.1114 32.512 34.5678C32.7372 34.0243 32.8531 33.4417 32.8531 32.8534C32.8531 32.2651 32.7372 31.6825 32.512 31.139C32.2869 30.5955 31.9569 30.1016 31.5409 29.6856C31.1249 29.2696 30.631 28.9396 30.0875 28.7144C29.5439 28.4893 28.9614 28.3734 28.3731 28.3734V32.8534V37.3334Z" fill="#1F9D97" stroke="white" stroke-width="2"/>
<path d="M36.5864 28.3734H40.3198" stroke="white" stroke-width="2"/>
<path d="M36.5864 37.3334H40.3198" stroke="white" stroke-width="2"/>
<path d="M28.3733 11.2001V45.5467" stroke="#2AD2C9" stroke-width="2"/>
</svg>
