<svg width="22" height="16" viewBox="0 0 22 16" fill="none" xmlns="http://www.w3.org/2000/svg">
<rect width="22" height="2" fill="#222222"/>
<rect y="7" width="22" height="2" fill="#222222"/>
<rect y="14" width="11" height="2" fill="#222222"/>
</svg>
